[{
    "id": 3233952928,
    "name": "Killjoy",
    "description": "End an enemy's killing spree",
    "type": "Spree",
    "rarity": "Normal",
    "image_urls": {
        "small": "https://assets.halo.autocode.gg/static/infinite/images/multiplayer/medals/small/killjoy.png",
        "medium": "https://assets.halo.autocode.gg/static/infinite/images/multiplayer/medals/medium/killjoy.png"
    }
},
{
    "id": 2780740615,
    "name": "Killing Spree",
    "description": "Kill 5 enemies without dying",
    "type": "Spree",
    "rarity": "Heroic",
    "image_urls": {
        "small": "https://assets.halo.autocode.gg/static/infinite/images/multiplayer/medals/small/killing-spree.png",
        "medium": "https://assets.halo.autocode.gg/static/infinite/images/multiplayer/medals/medium/killing-spree.png"
    }
},
{
    "id": 4261842076,
    "name": "Killing Frenzy",
    "description": "Kill 10 enemies without dying",
    "type": "Spree",
    "rarity": "Legendary",
    "image_urls": {
        "small": "https://assets.halo.autocode.gg/static/infinite/images/multiplayer/medals/small/killing-frenzy.png",
        "medium": "https://assets.halo.autocode.gg/static/infinite/images/multiplayer/medals/medium/killing-frenzy.png"
    }
},
{
    "id": 418532952,
    "name": "Running Riot",
    "description": "Kill 15 enemies without dying",
    "type": "Spree",
    "rarity": "Mythic",
    "image_urls": {
        "small": "https://assets.halo.autocode.gg/static/infinite/images/multiplayer/medals/small/running-riot.png",
        "medium": "https://assets.halo.autocode.gg/static/infinite/images/multiplayer/medals/medium/running-riot.png"
    }
},
{
    "id": 1486797009,
    "name": "Rampage",
    "description": "Kill 20 enemies without dying",
    "type": "Spree",
    "rarity": "Mythic",
    "image_urls": {
        "small": "https://assets.halo.autocode.gg/static/infinite/images/multiplayer/medals/small/rampage.png",
        "medium": "https://assets.halo.autocode.gg/static/infinite/images/multiplayer/medals/medium/rampage.png"
    }
},
{
    "id": 710323196,
    "name": "Nightmare",
    "description": "Kill 25 enemies without dying",
    "type": "Spree",
    "rarity": "Mythic",
    "image_urls": {
        "small": "https://assets.halo.autocode.gg/static/infinite/images/multiplayer/medals/small/nightmare.png",
        "medium": "https://assets.halo.autocode.gg/static/infinite/images/multiplayer/medals/medium/nightmare.png"
    }
},
{
    "id": 1720896992,
    "name": "Boogeyman",
    "description": "Kill 30 enemies without dying",
    "type": "Spree",
    "rarity": "Mythic",
    "image_urls": {
        "small": "https://assets.halo.autocode.gg/static/infinite/images/multiplayer/medals/small/boogeyman.png",
        "medium": "https://assets.halo.autocode.gg/static/infinite/images/multiplayer/medals/medium/boogeyman.png"
    }
},
{
    "id": 2567026752,
    "name": "Grim Reaper",
    "description": "Kill 35 enemies without dying",
    "type": "Spree",
    "rarity": "Mythic",
    "image_urls": {
        "small": "https://assets.halo.autocode.gg/static/infinite/images/multiplayer/medals/small/grim-reaper.png",
        "medium": "https://assets.halo.autocode.gg/static/infinite/images/multiplayer/medals/medium/grim-reaper.png"
    }
},
{
    "id": 2875941471,
    "name": "Demon",
    "description": "Kill 40 enemies without dying",
    "type": "Spree",
    "rarity": "Mythic",
    "image_urls": {
        "small": "https://assets.halo.autocode.gg/static/infinite/images/multiplayer/medals/small/demon.png",
        "medium": "https://assets.halo.autocode.gg/static/infinite/images/multiplayer/medals/medium/demon.png"
    }
},
{
    "id": 1169390319,
    "name": "Steaktacular",
    "description": "Win a game by dominating the enemy team",
    "type": "Match",
    "rarity": "Legendary",
    "image_urls": {
        "small": "https://assets.halo.autocode.gg/static/infinite/images/multiplayer/medals/small/steaktacular.png",
        "medium": "https://assets.halo.autocode.gg/static/infinite/images/multiplayer/medals/medium/steaktacular.png"
    }
},
{
    "id": 1680000231,
    "name": "Flawless Victory",
    "description": "Win every round of a game with 3+ rounds",
    "type": "Match",
    "rarity": "Legendary",
    "image_urls": {
        "small": "https://assets.halo.autocode.gg/static/infinite/images/multiplayer/medals/small/flawless-victory.png",
        "medium": "https://assets.halo.autocode.gg/static/infinite/images/multiplayer/medals/medium/flawless-victory.png"
    }
},
{
    "id": 865763896,
    "name": "Perfection",
    "description": "Win a game with 15+ kills and no deaths",
    "type": "Match",
    "rarity": "Mythic",
    "image_urls": {
        "small": "https://assets.halo.autocode.gg/static/infinite/images/multiplayer/medals/small/perfection.png",
        "medium": "https://assets.halo.autocode.gg/static/infinite/images/multiplayer/medals/medium/perfection.png"
    }
},
{
    "id": 2976102155,
    "name": "Action Hero",
    "description": "Disarm the enemy bomb moments before it detonates",
    "type": "Objective",
    "rarity": "Heroic",
    "image_urls": {
        "small": "https://assets.halo.autocode.gg/static/infinite/images/multiplayer/medals/small/action-hero.png",
        "medium": "https://assets.halo.autocode.gg/static/infinite/images/multiplayer/medals/medium/action-hero.png"
    }
},
{
    "id": 1585298941,
    "name": "Assured Destruction",
    "description": "Kill an enemy disarming your bomb moments before they succeed",
    "type": "Objective",
    "rarity": "Heroic",
    "image_urls": {
        "small": "https://assets.halo.autocode.gg/static/infinite/images/multiplayer/medals/small/assured-destruction.png",
        "medium": "https://assets.halo.autocode.gg/static/infinite/images/multiplayer/medals/medium/assured-destruction.png"
    }
},
{
    "id": 1334138090,
    "name": "Late Boomer",
    "description": "Plant the bomb moments before time expires",
    "type": "Objective",
    "rarity": "Heroic",
    "image_urls": {
        "small": "https://assets.halo.autocode.gg/static/infinite/images/multiplayer/medals/small/late-boomer.png",
        "medium": "https://assets.halo.autocode.gg/static/infinite/images/multiplayer/medals/medium/late-boomer.png"
    }
},
{
    "id": 3488248720,
    "name": "Stopped Short",
    "description": "Kill an enemy flag carrier who is about to score",
    "type": "Objective",
    "rarity": "Normal",
    "image_urls": {
        "small": "https://assets.halo.autocode.gg/static/infinite/images/multiplayer/medals/small/stopped-short.png",
        "medium": "https://assets.halo.autocode.gg/static/infinite/images/multiplayer/medals/medium/stopped-short.png"
    }
},
{
    "id": 976049027,
    "name": "Flag Joust",
    "description": "Kill an enemy flag carrier while holding a flag",
    "type": "Objective",
    "rarity": "Normal",
    "image_urls": {
        "small": "https://assets.halo.autocode.gg/static/infinite/images/multiplayer/medals/small/flag-joust.png",
        "medium": "https://assets.halo.autocode.gg/static/infinite/images/multiplayer/medals/medium/flag-joust.png"
    }
},
{
    "id": 3227840152,
    "name": "Goal Line Stand",
    "description": "Return a flag near the enemy flag stand",
    "type": "Objective",
    "rarity": "Heroic",
    "image_urls": {
        "small": "https://assets.halo.autocode.gg/static/infinite/images/multiplayer/medals/small/goal-line-stand.png",
        "medium": "https://assets.halo.autocode.gg/static/infinite/images/multiplayer/medals/medium/goal-line-stand.png"
    }
},
{
    "id": 4247875860,
    "name": "Duelist",
    "description": "Win a 1v1 encounter in the final Elimination round",
    "type": "Match",
    "rarity": "Normal",
    "image_urls": {
        "small": "https://assets.halo.autocode.gg/static/infinite/images/multiplayer/medals/small/duelist.png",
        "medium": "https://assets.halo.autocode.gg/static/infinite/images/multiplayer/medals/medium/duelist.png"
    }
},
{
    "id": 2623698509,
    "name": "Lone Wolf",
    "description": "Win against 3+ enemies by yourself in an Elimination round",
    "type": "Match",
    "rarity": "Heroic",
    "image_urls": {
        "small": "https://assets.halo.autocode.gg/static/infinite/images/multiplayer/medals/small/lone-wolf.png",
        "medium": "https://assets.halo.autocode.gg/static/infinite/images/multiplayer/medals/medium/lone-wolf.png"
    }
},
{
    "id": 3120600565,
    "name": "Immortal",
    "description": "Survive every round of Elimination",
    "type": "Match",
    "rarity": "Legendary",
    "image_urls": {
        "small": "https://assets.halo.autocode.gg/static/infinite/images/multiplayer/medals/small/immortal.png",
        "medium": "https://assets.halo.autocode.gg/static/infinite/images/multiplayer/medals/medium/immortal.png"
    }
},
{
    "id": 521420212,
    "name": "Ace",
    "description": "Wipe an enemy team in an Elimination round",
    "type": "Match",
    "rarity": "Legendary",
    "image_urls": {
        "small": "https://assets.halo.autocode.gg/static/infinite/images/multiplayer/medals/small/ace.png",
        "medium": "https://assets.halo.autocode.gg/static/infinite/images/multiplayer/medals/medium/ace.png"
    }
},
{
    "id": 3011158621,
    "name": "Necromancer",
    "description": "Revive every ally in an Elimination round",
    "type": "Objective",
    "rarity": "Legendary",
    "image_urls": {
        "small": "https://assets.halo.autocode.gg/static/infinite/images/multiplayer/medals/small/necromancer.png",
        "medium": "https://assets.halo.autocode.gg/static/infinite/images/multiplayer/medals/medium/necromancer.png"
    }
},
{
    "id": 4100966367,
    "name": "Extermination",
    "description": "Wipe an enemy team with at least an Overkill in an Elimination round",
    "type": "Match",
    "rarity": "Mythic",
    "image_urls": {
        "small": "https://assets.halo.autocode.gg/static/infinite/images/multiplayer/medals/small/extermination.png",
        "medium": "https://assets.halo.autocode.gg/static/infinite/images/multiplayer/medals/medium/extermination.png"
    }
},
{
    "id": 2426456555,
    "name": "Secure Line",
    "description": "Kill an enemy converting your Extraction moments before they succeed",
    "type": "Objective",
    "rarity": "Heroic",
    "image_urls": {
        "small": "https://assets.halo.autocode.gg/static/infinite/images/multiplayer/medals/small/secure-line.png",
        "medium": "https://assets.halo.autocode.gg/static/infinite/images/multiplayer/medals/medium/secure-line.png"
    }
},
{
    "id": 3931425309,
    "name": "Signal Block",
    "description": "Convert an enemy Extraction within moments of its completion",
    "type": "Objective",
    "rarity": "Heroic",
    "image_urls": {
        "small": "https://assets.halo.autocode.gg/static/infinite/images/multiplayer/medals/small/signal-block.png",
        "medium": "https://assets.halo.autocode.gg/static/infinite/images/multiplayer/medals/medium/signal-block.png"
    }
},
{
    "id": 2717755703,
    "name": "Sole Survivor",
    "description": "Be the final Survivor in an Infection round",
    "type": "Match",
    "rarity": "Normal",
    "image_urls": {
        "small": "https://assets.halo.autocode.gg/static/infinite/images/multiplayer/medals/small/sole-survivor.png",
        "medium": "https://assets.halo.autocode.gg/static/infinite/images/multiplayer/medals/medium/sole-survivor.png"
    }
},
{
    "id": 1025827095,
    "name": "Culling",
    "description": "Kill 2 Infected in quick succession",
    "type": "Multi",
    "rarity": "Heroic",
    "image_urls": {
        "small": "https://assets.halo.autocode.gg/static/infinite/images/multiplayer/medals/small/culling.png",
        "medium": "https://assets.halo.autocode.gg/static/infinite/images/multiplayer/medals/medium/culling.png"
    }
},
{
    "id": 88914608,
    "name": "Blight",
    "description": "Kill 2 Survivors in quick succession",
    "type": "Multi",
    "rarity": "Heroic",
    "image_urls": {
        "small": "https://assets.halo.autocode.gg/static/infinite/images/multiplayer/medals/small/blight.png",
        "medium": "https://assets.halo.autocode.gg/static/infinite/images/multiplayer/medals/medium/blight.png"
    }
},
{
    "id": 557309779,
    "name": "Zombie Slayer",
    "description": "Kill 10 Infected without dying",
    "type": "Spree",
    "rarity": "Heroic",
    "image_urls": {
        "small": "https://assets.halo.autocode.gg/static/infinite/images/multiplayer/medals/small/zombie-slayer.png",
        "medium": "https://assets.halo.autocode.gg/static/infinite/images/multiplayer/medals/medium/zombie-slayer.png"
    }
},
{
    "id": 3467301935,
    "name": "Purge",
    "description": "Kill 4 Infected in quick succession",
    "type": "Multi",
    "rarity": "Legendary",
    "image_urls": {
        "small": "https://assets.halo.autocode.gg/static/infinite/images/multiplayer/medals/small/purge.png",
        "medium": "https://assets.halo.autocode.gg/static/infinite/images/multiplayer/medals/medium/purge.png"
    }
},
{
    "id": 1155542859,
    "name": "Disease",
    "description": "Kill 3 Survivors in quick succession",
    "type": "Multi", 
    "rarity": "Legendary",
    "image_urls": {
        "small": "https://assets.halo.autocode.gg/static/infinite/images/multiplayer/medals/small/disease.png",
        "medium": "https://assets.halo.autocode.gg/static/infinite/images/multiplayer/medals/medium/disease.png"
    }
},
{
    "id": 1447057920,
    "name": "Undead Hunter",
    "description": "Kill 20 Infected without dying",
    "type": "Spree",
    "rarity": "Legendary",
    "image_urls": {
        "small": "https://assets.halo.autocode.gg/static/infinite/images/multiplayer/medals/small/undead-hunter.png",
        "medium": "https://assets.halo.autocode.gg/static/infinite/images/multiplayer/medals/medium/undead-hunter.png"
    }
},
{
    "id": 1064731598,
    "name": "Untainted",
    "description": "Maintain your humanity in Infection",
    "type": "Match",
    "rarity": "Legendary",
    "image_urls": {
        "small": "https://assets.halo.autocode.gg/static/infinite/images/multiplayer/medals/small/untainted.png",
        "medium": "https://assets.halo.autocode.gg/static/infinite/images/multiplayer/medals/medium/untainted.png"
    }
},
{
    "id": 1765213446,
    "name": "Cleansing",
    "description": "Kill 6 Infected in quick succession",
    "type": "Multi",
    "rarity": "Mythic",
    "image_urls": {
        "small": "https://assets.halo.autocode.gg/static/infinite/images/multiplayer/medals/small/cleansing.png",
        "medium": "https://assets.halo.autocode.gg/static/infinite/images/multiplayer/medals/medium/cleansing.png"
    }
},
{
    "id": 3786134933,
    "name": "Plague",
    "description": "Kill 4 Survivors in quick succession", 
    "type": "Multi",
    "rarity": "Mythic",
    "image_urls": {
        "small": "https://assets.halo.autocode.gg/static/infinite/images/multiplayer/medals/small/plague.png",
        "medium": "https://assets.halo.autocode.gg/static/infinite/images/multiplayer/medals/medium/plague.png"
    }
},
{
    "id": 217730222,
    "name": "Hell's Janitor",
    "description": "Kill 30 Infected without dying",
    "type": "Spree",
    "rarity": "Mythic",
    "image_urls": {
        "small": "https://assets.halo.autocode.gg/static/infinite/images/multiplayer/medals/small/hells-janitor.png",
        "medium": "https://assets.halo.autocode.gg/static/infinite/images/multiplayer/medals/medium/hells-janitor.png"
    }
},
{
    "id": 17866865,
    "name": "The Sickness",
    "description": "Infect all Survivors in an Infection round",
    "type": "Match",
    "rarity": "Mythic",
    "image_urls": {
        "small": "https://assets.halo.autocode.gg/static/infinite/images/multiplayer/medals/small/the-sickness.png",
        "medium": "https://assets.halo.autocode.gg/static/infinite/images/multiplayer/medals/medium/the-sickness.png"
    }
},
{
    "id": 496411737,
    "name": "Purification",
    "description": "Kill 8 Infected in quick succession",
    "type": "Multi",
    "rarity": "Mythic",
    "image_urls": {
        "small": "https://assets.halo.autocode.gg/static/infinite/images/multiplayer/medals/small/purification.png",
        "medium": "https://assets.halo.autocode.gg/static/infinite/images/multiplayer/medals/medium/purification.png"
    }
},
{
    "id": 1719203329,
    "name": "Pestilence",
    "description": "Kill 5 Survivors in quick succession",
    "type": "Multi",
    "rarity": "Mythic",
    "image_urls": {
        "small": "https://assets.halo.autocode.gg/static/infinite/images/multiplayer/medals/small/pestilence.png",
        "medium": "https://assets.halo.autocode.gg/static/infinite/images/multiplayer/medals/medium/pestilence.png"
    }
},
{
    "id": 2164872967,
    "name": "Divine Intervention",
    "description": "Kill 10 Infected in quick succession",
    "type": "Multi", 
    "rarity": "Mythic",
    "image_urls": {
        "small": "https://assets.halo.autocode.gg/static/infinite/images/multiplayer/medals/small/divine-intervention.png",
        "medium": "https://assets.halo.autocode.gg/static/infinite/images/multiplayer/medals/medium/divine-intervention.png"
    }
},
{
    "id": 3520382976,
    "name": "Scourge",
    "description": "Kill 6 Survivors in quick succession",
    "type": "Multi", 
    "rarity": "Mythic",
    "image_urls": {
        "small": "https://assets.halo.autocode.gg/static/infinite/images/multiplayer/medals/small/scourge.png",
        "medium": "https://assets.halo.autocode.gg/static/infinite/images/multiplayer/medals/medium/scourge.png"
    }
},
{
    "id": 3653884673,
    "name": "Apocalypse",
    "description": "Kill 7 Survivors in quick succession",
    "type": "Multi", 
    "rarity": "Mythic",
    "image_urls": {
        "small": "https://assets.halo.autocode.gg/static/infinite/images/multiplayer/medals/small/apocalypse.png",
        "medium": "https://assets.halo.autocode.gg/static/infinite/images/multiplayer/medals/medium/apocalypse.png"
    }
},
{
    "id": 2005352812,
    "name": "Meganaut",
    "description": "Recharge your shields 10 times as the Juggernaut",
    "type": "Objective", 
    "rarity": "Heroic",
    "image_urls": {
        "small": "https://assets.halo.autocode.gg/static/infinite/images/multiplayer/medals/small/meganaut.png",
        "medium": "https://assets.halo.autocode.gg/static/infinite/images/multiplayer/medals/medium/meganaut.png"
    }
},
{
    "id": 3732790338,
    "name": "Fumble",
    "description": "Kill the enemy Oddball carrier within moments of their victory",
    "type": "Objective",
    "rarity": "Heroic",
    "image_urls": {
        "small": "https://assets.halo.autocode.gg/static/infinite/images/multiplayer/medals/small/fumble.png",
        "medium": "https://assets.halo.autocode.gg/static/infinite/images/multiplayer/medals/medium/fumble.png"
    }
},
{
    "id": 781229683,
    "name": "Straight Balling",
    "description": "Carry the Oddball for 1 minute",
    "type": "Objective",
    "rarity": "Legendary",
    "image_urls": {
        "small": "https://assets.halo.autocode.gg/static/infinite/images/multiplayer/medals/small/straight-balling.png",
        "medium": "https://assets.halo.autocode.gg/static/infinite/images/multiplayer/medals/medium/straight-balling.png"
    }
},
{
    "id": 1254180082,
    "name": "Deep Ball",
    "description": "Complete a pass to a teammate from far away",
    "type": "Objective",
    "rarity": "Normal",
    "image_urls": {
        "small": "https://assets.halo.autocode.gg/static/infinite/images/multiplayer/medals/small/deep-ball.png",
        "medium": "https://assets.halo.autocode.gg/static/infinite/images/multiplayer/medals/medium/deep-ball.png"
    }
},
{
    "id": 2362950720,
    "name": "Interception",
    "description": "Catch an enemy-thrown ball near your goal",
    "type": "Objective",
    "rarity": "Normal",
    "image_urls": {
        "small": "https://assets.halo.autocode.gg/static/infinite/images/multiplayer/medals/small/interception.png",
        "medium": "https://assets.halo.autocode.gg/static/infinite/images/multiplayer/medals/medium/interception.png"
    }
},
{
    "id": 4014259917,
    "name": "Fast Break",
    "description": "Score a goal shortly after the ball is spawned without a turnover",
    "type": "Objective",
    "rarity": "Heroic",
    "image_urls": {
        "small": "https://assets.halo.autocode.gg/static/infinite/images/multiplayer/medals/small/fast-break.png",
        "medium": "https://assets.halo.autocode.gg/static/infinite/images/multiplayer/medals/medium/fast-break.png"
    }
},
{
    "id": 1376646881,
    "name": "Great Journey",
    "description": "Steal an enemy Power Seed and secure it for your team without dropping it",
    "type": "Objective",
    "rarity": "Heroic",
    "image_urls": {
        "small": "https://assets.halo.autocode.gg/static/infinite/images/multiplayer/medals/small/great-journey.png",
        "medium": "https://assets.halo.autocode.gg/static/infinite/images/multiplayer/medals/medium/great-journey.png"
    }
},
{
    "id": 629165579,
    "name": "Power Outage",
    "description": "Steal 3 Power Seeds in quick succession",
    "type": "Objective",
    "rarity": "Legendary",
    "image_urls": {
        "small": "https://assets.halo.autocode.gg/static/infinite/images/multiplayer/medals/small/power-outage.png",
        "medium": "https://assets.halo.autocode.gg/static/infinite/images/multiplayer/medals/medium/power-outage.png"
    }
},
{
    "id": 3528500956,
    "name": "All That Juice",
    "description": "Secure 3 Power Seeds in quick succession",
    "type": "Objective",
    "rarity": "Legendary",
    "image_urls": {
        "small": "https://assets.halo.autocode.gg/static/infinite/images/multiplayer/medals/small/all-that-juice.png",
        "medium": "https://assets.halo.autocode.gg/static/infinite/images/multiplayer/medals/medium/all-that-juice.png"
    }
},
{
    "id": 1053114074,
    "name": "Clash of Kings",
    "description": "Kill a VIP while being a VIP yourself",
    "type": "Objective", 
    "rarity": "Normal",
    "image_urls": {
        "small": "https://assets.halo.autocode.gg/static/infinite/images/multiplayer/medals/small/clash-of-kings.png",
        "medium": "https://assets.halo.autocode.gg/static/infinite/images/multiplayer/medals/medium/clash-of-kings.png"
    }
},
{
    "id": 1210968206,
    "name": "Watch the Throne",
    "description": "Save your VIP's life",
    "type": "Objective",
    "rarity": "Normal",
    "image_urls": {
        "small": "https://assets.halo.autocode.gg/static/infinite/images/multiplayer/medals/small/watch-the-throne.png",
        "medium": "https://assets.halo.autocode.gg/static/infinite/images/multiplayer/medals/medium/watch-the-throne.png"
    }
},
{
    "id": 3945864962,
    "name": "Fast Lane",
    "description": "As VIP, visit all Scout points within X seconds",
    "type": "Objective",
    "rarity": "Heroic",
    "image_urls": {
        "small": "https://assets.halo.autocode.gg/static/infinite/images/multiplayer/medals/small/fast-lane.png",
        "medium": "https://assets.halo.autocode.gg/static/infinite/images/multiplayer/medals/medium/fast-lane.png"
    }
},
{
    "id": 3041030832,
    "name": "High Value Target",
    "description": "Kill a VIP that is one Scout Point away of scoring",
    "type": "Objective", 
    "rarity": "Heroic",
    "image_urls": {
        "small": "https://assets.halo.autocode.gg/static/infinite/images/multiplayer/medals/small/high-value-target.png",
        "medium": "https://assets.halo.autocode.gg/static/infinite/images/multiplayer/medals/medium/high-value-target.png"
    }
},
{
    "id": 2125906504,
    "name": "Big Deal",
    "description": "Survive as the VIP for 2 minutes",
    "type": "Objective",
    "rarity": "Heroic",
    "image_urls": {
        "small": "https://assets.halo.autocode.gg/static/infinite/images/multiplayer/medals/small/big-deal.png",
        "medium": "https://assets.halo.autocode.gg/static/infinite/images/multiplayer/medals/medium/big-deal.png"
    }
},
{
    "id": 590706932,
    "name": "Contract Killer",
    "description": "Kill 3 enemy VIP's in a single life",
    "type": "Objective",
    "rarity": "Legendary",
    "image_urls": {
        "small": "https://assets.halo.autocode.gg/static/infinite/images/multiplayer/medals/small/contract-killer.png",
        "medium": "https://assets.halo.autocode.gg/static/infinite/images/multiplayer/medals/medium/contract-killer.png"
    }
},
{
    "id": 1472686630,
    "name": "Always Rotating",
    "description": "Capture all zones in a single life",
    "type": "Objective",
    "rarity": "Normal",
    "image_urls": {
        "small": "https://assets.halo.autocode.gg/static/infinite/images/multiplayer/medals/small/always-rotating.png",
        "medium": "https://assets.halo.autocode.gg/static/infinite/images/multiplayer/medals/medium/always-rotating.png"
    }
},
{
    "id": 420808268,
    "name": "Zone Guardian",
    "description": "Occupy the zone for 30 seconds without leaving in King of the Hill",
    "type": "Objective",
    "rarity": "Heroic",
    "image_urls": {
        "small": "https://assets.halo.autocode.gg/static/infinite/images/multiplayer/medals/small/zone-guardian.png",
        "medium": "https://assets.halo.autocode.gg/static/infinite/images/multiplayer/medals/medium/zone-guardian.png"
    }
},
{
    "id": 3630529364,
    "name": "Clock Stop",
    "description": "Stop the enemy from scoring their final points by capturing a zone in Strongholds",
    "type": "Objective",
    "rarity": "Heroic",
    "image_urls": {
        "small": "https://assets.halo.autocode.gg/static/infinite/images/multiplayer/medals/small/clock-stop.png",
        "medium": "https://assets.halo.autocode.gg/static/infinite/images/multiplayer/medals/medium/clock-stop.png"
    }
},
{
    "id": 622331684,
    "name": "Double Kill",
    "description": "Kill 2 enemies in quick succession",
    "type": "Multi",
    "rarity": "Heroic",
    "image_urls": {
        "small": "https://assets.halo.autocode.gg/static/infinite/images/multiplayer/medals/small/double-kill.png",
        "medium": "https://assets.halo.autocode.gg/static/infinite/images/multiplayer/medals/medium/double-kill.png"
    }
},
{
    "id": 2063152177,
    "name": "Triple Kill",
    "description": "Kill 3 enemies in quick succession",
    "type": "Multi",
    "rarity": "Legendary",
    "image_urls": {
        "small": "https://assets.halo.autocode.gg/static/infinite/images/multiplayer/medals/small/triple-kill.png",
        "medium": "https://assets.halo.autocode.gg/static/infinite/images/multiplayer/medals/medium/triple-kill.png"
    }
},
{
    "id": 835814121,
    "name": "Overkill",
    "description": "Kill 4 enemies in quick succession",
    "type": "Multi",
    "rarity": "Mythic",
    "image_urls": {
        "small": "https://assets.halo.autocode.gg/static/infinite/images/multiplayer/medals/small/overkill.png",
        "medium": "https://assets.halo.autocode.gg/static/infinite/images/multiplayer/medals/medium/overkill.png"
    }
},
{
    "id": 2137071619,
    "name": "Killtacular",
    "description": "Kill 5 enemies in quick succession",
    "type": "Multi",
    "rarity": "Mythic",
    "image_urls": {
        "small": "https://assets.halo.autocode.gg/static/infinite/images/multiplayer/medals/small/killtacular.png",
        "medium": "https://assets.halo.autocode.gg/static/infinite/images/multiplayer/medals/medium/killtacular.png"
    }
},
{
    "id": 1430343434,
    "name": "Killtrocity",
    "description": "Kill 6 enemies in quick succession",
    "type": "Multi",
    "rarity": "Mythic",
    "image_urls": {
        "small": "https://assets.halo.autocode.gg/static/infinite/images/multiplayer/medals/small/killtrocity.png",
        "medium": "https://assets.halo.autocode.gg/static/infinite/images/multiplayer/medals/medium/killtrocity.png"
    }
},
{
    "id": 3835606176,
    "name": "Killamanjaro",
    "description": "Kill 7 enemies in quick succession",
    "type": "Multi",
    "rarity": "Mythic",
    "image_urls": {
        "small": "https://assets.halo.autocode.gg/static/infinite/images/multiplayer/medals/small/killamanjaro.png",
        "medium": "https://assets.halo.autocode.gg/static/infinite/images/multiplayer/medals/medium/killamanjaro.png"
    }
},
{
    "id": 2242633421,
    "name": "Killtastrophe",
    "description": "Kill 8 enemies in quick succession",
    "type": "Multi",
    "rarity": "Mythic",
    "image_urls": {
        "small": "https://assets.halo.autocode.gg/static/infinite/images/multiplayer/medals/small/killtastrophe.png",
        "medium": "https://assets.halo.autocode.gg/static/infinite/images/multiplayer/medals/medium/killtastrophe.png"
    }
},
{
    "id": 3352648716,
    "name": "Killpocalypse",
    "description": "Kill 9 enemies in quick succession",
    "type": "Multi",
    "rarity": "Mythic",
    "image_urls": {
        "small": "https://assets.halo.autocode.gg/static/infinite/images/multiplayer/medals/small/killpocalypse.png",
        "medium": "https://assets.halo.autocode.gg/static/infinite/images/multiplayer/medals/medium/killpocalypse.png"
    }
},
{
    "id": 3233051772,
    "name": "Killionaire",
    "description": "Kill 10 enemies in quick succession",
    "type": "Multi",
    "rarity": "Mythic",
    "image_urls": {
        "small": "https://assets.halo.autocode.gg/static/infinite/images/multiplayer/medals/small/killionaire.png",
        "medium": "https://assets.halo.autocode.gg/static/infinite/images/multiplayer/medals/medium/killionaire.png"
    }
},
{
    "id": 2477555653,
    "name": "Spotter",
    "description": "Mark 5 enemies that are then killed",
    "type": "Assist",
    "rarity": "Normal",
    "image_urls": {
        "small": "https://assets.halo.autocode.gg/static/infinite/images/multiplayer/medals/small/spotter.png",
        "medium": "https://assets.halo.autocode.gg/static/infinite/images/multiplayer/medals/medium/spotter.png"
    }
},
{
    "id": 1685043466,
    "name": "Treasure Hunter",
    "description": "Mark 3 Power weapons that are picked up by allies",
    "type": "Assist",
    "rarity": "Normal",
    "image_urls": {
        "small": "https://assets.halo.autocode.gg/static/infinite/images/multiplayer/medals/small/treasure-hunter.png",
        "medium": "https://assets.halo.autocode.gg/static/infinite/images/multiplayer/medals/medium/treasure-hunter.png"
    }
},
{
    "id": 20397755,
    "name": "Saboteur",
    "description": "Destroy 5 enemy vehicles",
    "type": "Vehicle",
    "rarity": "Normal",
    "image_urls": {
        "small": "https://assets.halo.autocode.gg/static/infinite/images/multiplayer/medals/small/saboteur.png",
        "medium": "https://assets.halo.autocode.gg/static/infinite/images/multiplayer/medals/medium/saboteur.png"
    }
},
{
    "id": 1284032216,
    "name": "Wingman",
    "description": "Earn 10 kill assists",
    "type": "Assist",
    "rarity": "Normal",
    "image_urls": {
        "small": "https://assets.halo.autocode.gg/static/infinite/images/multiplayer/medals/small/wingman.png",
        "medium": "https://assets.halo.autocode.gg/static/infinite/images/multiplayer/medals/medium/wingman.png"
    }
},
{
    "id": 2926348688,
    "name": "Wheelman",
    "description": "Earn 5 driver assists",
    "type": "Vehicle",
    "rarity": "Normal",
    "image_urls": {
        "small": "https://assets.halo.autocode.gg/static/infinite/images/multiplayer/medals/small/wheelman.png",
        "medium": "https://assets.halo.autocode.gg/static/infinite/images/multiplayer/medals/medium/wheelman.png"
    }
},
{
    "id": 3783455472,
    "name": "Gunner",
    "description": "Kill 5 enemies with mounted turrets",
    "type": "Vehicle",
    "rarity": "Normal",
    "image_urls": {
        "small": "https://assets.halo.autocode.gg/static/infinite/images/multiplayer/medals/small/gunner.png",
        "medium": "https://assets.halo.autocode.gg/static/infinite/images/multiplayer/medals/medium/gunner.png"
    }
},
{
    "id": 3027762381,
    "name": "Driver",
    "description": "Kill 5 enemies with ground vehicles",
    "type": "Vehicle",
    "rarity": "Normal",
    "image_urls": {
        "small": "https://assets.halo.autocode.gg/static/infinite/images/multiplayer/medals/small/driver.png",
        "medium": "https://assets.halo.autocode.gg/static/infinite/images/multiplayer/medals/medium/driver.png"
    }
},
{
    "id": 2593226288,
    "name": "Pilot",
    "description": "Kill 5 enemies with aircraft",
    "type": "Vehicle",
    "rarity": "Normal",
    "image_urls": {
        "small": "https://assets.halo.autocode.gg/static/infinite/images/multiplayer/medals/small/pilot.png",
        "medium": "https://assets.halo.autocode.gg/static/infinite/images/multiplayer/medals/medium/pilot.png"
    }
},
{
    "id": 2852571933,
    "name": "Rifleman",
    "description": "Kill 5 enemies with assault rifles",
    "type": "Weapon",
    "rarity": "Normal",
    "image_urls": {
        "small": "https://assets.halo.autocode.gg/static/infinite/images/multiplayer/medals/small/rifleman.png",
        "medium": "https://assets.halo.autocode.gg/static/infinite/images/multiplayer/medals/medium/rifleman.png"
    }
},
{
    "id": 4086138034,
    "name": "Heavy",
    "description": "Kill 5 enemies with detached turrets",
    "type": "Weapon",
    "rarity": "Normal",
    "image_urls": {
        "small": "https://assets.halo.autocode.gg/static/infinite/images/multiplayer/medals/small/heavy.png",
        "medium": "https://assets.halo.autocode.gg/static/infinite/images/multiplayer/medals/medium/heavy.png"
    }
},
{
    "id": 2648272972,
    "name": "Grenadier",
    "description": "Kill 5 enemies with grenades",
    "type": "Nades",
    "rarity": "Normal",
    "image_urls": {
        "small": "https://assets.halo.autocode.gg/static/infinite/images/multiplayer/medals/small/grenadier.png",
        "medium": "https://assets.halo.autocode.gg/static/infinite/images/multiplayer/medals/medium/grenadier.png"
    }
},
{
    "id": 1146876011,
    "name": "Bomber",
    "description": "Kill 5 enemies with launchers",
    "type": "Weapon",
    "rarity": "Normal",
    "image_urls": {
        "small": "https://assets.halo.autocode.gg/static/infinite/images/multiplayer/medals/small/bomber.png",
        "medium": "https://assets.halo.autocode.gg/static/infinite/images/multiplayer/medals/medium/bomber.png"
    }
},
{
    "id": 269174970,
    "name": "Boxer",
    "description": "Kill 5 enemies with melee",
    "type": "Melee",
    "rarity": "Normal",
    "image_urls": {
        "small": "https://assets.halo.autocode.gg/static/infinite/images/multiplayer/medals/small/boxer.png",
        "medium": "https://assets.halo.autocode.gg/static/infinite/images/multiplayer/medals/medium/boxer.png"
    }
},
{
    "id": 1210678802,
    "name": "Warrior",
    "description": "Kill 5 enemies with melee weapons",
    "type": "Melee",
    "rarity": "Normal",
    "image_urls": {
        "small": "https://assets.halo.autocode.gg/static/infinite/images/multiplayer/medals/small/warrior.png",
        "medium": "https://assets.halo.autocode.gg/static/infinite/images/multiplayer/medals/medium/warrior.png"
    }
},
{
    "id": 1172766553,
    "name": "Gunslinger",
    "description": "Kill 5 enemies with pistols",
    "type": "Weapon",
    "rarity": "Normal",
    "image_urls": {
        "small": "https://assets.halo.autocode.gg/static/infinite/images/multiplayer/medals/small/gunslinger.png",
        "medium": "https://assets.halo.autocode.gg/static/infinite/images/multiplayer/medals/medium/gunslinger.png"
    }
},
{
    "id": 3347922939,
    "name": "Scattergunner",
    "description": "Kill 5 enemies with shotguns",
    "type": "Weapon",
    "rarity": "Normal",
    "image_urls": {
        "small": "https://assets.halo.autocode.gg/static/infinite/images/multiplayer/medals/small/scattergunner.png",
        "medium": "https://assets.halo.autocode.gg/static/infinite/images/multiplayer/medals/medium/scattergunner.png"
    }
},
{
    "id": 2750622016,
    "name": "Breacher",
    "description": "Kill 5 enemies with SMG weapons",
    "type": "Weapon",
    "rarity": "Normal",
    "image_urls": {
        "small": "https://assets.halo.autocode.gg/static/infinite/images/multiplayer/medals/small/breacher.png",
        "medium": "https://assets.halo.autocode.gg/static/infinite/images/multiplayer/medals/medium/breacher.png"
    }
},
{
    "id": 4277328263,
    "name": "Sharpshooter",
    "description": "Kill 5 enemies with sniper rifles",
    "type": "Weapon",
    "rarity": "Normal",
    "image_urls": {
        "small": "https://assets.halo.autocode.gg/static/infinite/images/multiplayer/medals/small/sharpshooter.png",
        "medium": "https://assets.halo.autocode.gg/static/infinite/images/multiplayer/medals/medium/sharpshooter.png"
    }
},
{
    "id": 2758320809,
    "name": "Marksman",
    "description": "Kill 5 enemies with tactical rifles",
    "type": "Weapon",
    "rarity": "Normal",
    "image_urls": {
        "small": "https://assets.halo.autocode.gg/static/infinite/images/multiplayer/medals/small/marksman.png",
        "medium": "https://assets.halo.autocode.gg/static/infinite/images/multiplayer/medals/medium/marksman.png"
    }
},
{
    "id": 2278023431,
    "name": "Tanker",
    "description": "Kill 5 enemies with siege vehicles",
    "type": "Vehicle",
    "rarity": "Normal",
    "image_urls": {
        "small": "https://assets.halo.autocode.gg/static/infinite/images/multiplayer/medals/small/tanker.png",
        "medium": "https://assets.halo.autocode.gg/static/infinite/images/multiplayer/medals/medium/tanker.png"
    }
},
{
    "id": 555849395,
    "name": "Bodyguard",
    "description": "Save 5 allies by killing their attacker",
    "type": "Assist",
    "rarity": "Normal",
    "image_urls": {
        "small": "https://assets.halo.autocode.gg/static/infinite/images/multiplayer/medals/small/bodyguard.png",
        "medium": "https://assets.halo.autocode.gg/static/infinite/images/multiplayer/medals/medium/bodyguard.png"
    }
},
{
    "id": 731054446,
    "name": "Skyjack",
    "description": "Hijack an enemy aircraft",
    "type": "Vehicle",
    "rarity": "Normal",
    "image_urls": {
        "small": "https://assets.halo.autocode.gg/static/infinite/images/multiplayer/medals/small/skyjack.png",
        "medium": "https://assets.halo.autocode.gg/static/infinite/images/multiplayer/medals/medium/skyjack.png"
    }
},
{
    "id": 1229018603,
    "name": "Dogfight",
    "description": "Destroy an enemy aircraft while in one yourself",
    "type": "Vehicle",
    "rarity": "Normal",
    "image_urls": {
        "small": "https://assets.halo.autocode.gg/static/infinite/images/multiplayer/medals/small/dogfight.png",
        "medium": "https://assets.halo.autocode.gg/static/infinite/images/multiplayer/medals/medium/dogfight.png"
    }
},
{
    "id": 2418616582,
    "name": "Harpoon",
    "description": "Grapple a distant enemy",
    "type": "Equipment",
    "rarity": "Normal",
    "image_urls": {
        "small": "https://assets.halo.autocode.gg/static/infinite/images/multiplayer/medals/small/harpoon.png",
        "medium": "https://assets.halo.autocode.gg/static/infinite/images/multiplayer/medals/medium/harpoon.png"
    }
},
{
    "id": 3905838030,
    "name": "Cluster Luck",
    "description": "Kill 2+ enemies with a single grenade",
    "type": "Nades",
    "rarity": "Heroic",
    "image_urls": {
        "small": "https://assets.halo.autocode.gg/static/infinite/images/multiplayer/medals/small/cluster-luck.png",
        "medium": "https://assets.halo.autocode.gg/static/infinite/images/multiplayer/medals/medium/cluster-luck.png"
    }
},
{
    "id": 3655682764,
    "name": "Stick",
    "description": "Kill an enemy by sticking them with a Plasma or Spike Grenade",
    "type": "Nades",
    "rarity": "Normal",
    "image_urls": {
        "small": "https://assets.halo.autocode.gg/static/infinite/images/multiplayer/medals/small/stick.png",
        "medium": "https://assets.halo.autocode.gg/static/infinite/images/multiplayer/medals/medium/stick.png"
    }
},
{
    "id": 1969067783,
    "name": "Chain Reaction",
    "description": "Kill an enemy with a shock chain",
    "type": "Nades",
    "rarity": "Normal",
    "image_urls": {
        "small": "https://assets.halo.autocode.gg/static/infinite/images/multiplayer/medals/small/chain-reaction.png",
        "medium": "https://assets.halo.autocode.gg/static/infinite/images/multiplayer/medals/medium/chain-reaction.png"
    }
},
{
    "id": 548533137,
    "name": "Back Smack",
    "description": "Kill an enemy by hitting them from behind with melee",
    "type": "Melee",
    "rarity": "Normal",
    "image_urls": {
        "small": "https://assets.halo.autocode.gg/static/infinite/images/multiplayer/medals/small/back-smack.png",
        "medium": "https://assets.halo.autocode.gg/static/infinite/images/multiplayer/medals/medium/back-smack.png"
    }
},
{
    "id": 221693153,
    "name": "Splatter",
    "description": "Kill an enemy by hitting them with a vehicle",
    "type": "Vehicle",
    "rarity": "Normal",
    "image_urls": {
        "small": "https://assets.halo.autocode.gg/static/infinite/images/multiplayer/medals/small/splatter.png",
        "medium": "https://assets.halo.autocode.gg/static/infinite/images/multiplayer/medals/medium/splatter.png"
    }
},
{
    "id": 2123530881,
    "name": "Reversal",
    "description": "Kill an enemy who attacked you first",
    "type": "General",
    "rarity": "Normal",
    "image_urls": {
        "small": "https://assets.halo.autocode.gg/static/infinite/images/multiplayer/medals/small/reversal.png",
        "medium": "https://assets.halo.autocode.gg/static/infinite/images/multiplayer/medals/medium/reversal.png"
    }
},
{
    "id": 4229934157,
    "name": "Snipe",
    "description": "Headshot an enemy with a Power sniper rifle",
    "type": "Weapon",
    "rarity": "Normal",
    "image_urls": {
        "small": "https://assets.halo.autocode.gg/static/infinite/images/multiplayer/medals/small/snipe.png",
        "medium": "https://assets.halo.autocode.gg/static/infinite/images/multiplayer/medals/medium/snipe.png"
    }
},
{
    "id": 3334154676,
    "name": "Guardian Angel",
    "description": "Save an ally's life from far away",
    "type": "Assist",
    "rarity": "Normal",
    "image_urls": {
        "small": "https://assets.halo.autocode.gg/static/infinite/images/multiplayer/medals/small/guardian-angel.png",
        "medium": "https://assets.halo.autocode.gg/static/infinite/images/multiplayer/medals/medium/guardian-angel.png"
    }
},
{
    "id": 3546244406,
    "name": "Kong",
    "description": "Kill an enemy by throwing a Fusion Coil",
    "type": "Weapon",
    "rarity": "Normal",
    "image_urls": {
        "small": "https://assets.halo.autocode.gg/static/infinite/images/multiplayer/medals/small/kong.png",
        "medium": "https://assets.halo.autocode.gg/static/infinite/images/multiplayer/medals/medium/kong.png"
    }
},
{
    "id": 87172902,
    "name": "Odin's Raven",
    "description": "Detect 3+ enemies with a single Threat Sensor",
    "type": "Equipment",
    "rarity": "Normal",
    "image_urls": {
        "small": "https://assets.halo.autocode.gg/static/infinite/images/multiplayer/medals/small/odins-raven.png",
        "medium": "https://assets.halo.autocode.gg/static/infinite/images/multiplayer/medals/medium/odins-raven.png"
    }
},
{
    "id": 1841872491,
    "name": "Tag & Bag",
    "description": "Kill 2+ enemies while revealing them with the Threat Sensor",
    "type": "Equipment",
    "rarity": "Heroic",
    "image_urls": {
        "small": "https://assets.halo.autocode.gg/static/infinite/images/multiplayer/medals/small/tag-bag.png",
        "medium": "https://assets.halo.autocode.gg/static/infinite/images/multiplayer/medals/medium/tag-bag.png"
    }
},
{
    "id": 656245292,
    "name": "Rideshare",
    "description": "Deliver the objective carrier to the objective after driving a great distance",
    "type": "Vehicle",
    "rarity": "Heroic",
    "image_urls": {
        "small": "https://assets.halo.autocode.gg/static/infinite/images/multiplayer/medals/small/rideshare.png",
        "medium": "https://assets.halo.autocode.gg/static/infinite/images/multiplayer/medals/medium/rideshare.png"
    }
},
{
    "id": 3876426273,
    "name": "Pancake",
    "description": "Kill an enemy by flattening them with the Repulsor",
    "type": "Equipment",
    "rarity": "Heroic",
    "image_urls": {
        "small": "https://assets.halo.autocode.gg/static/infinite/images/multiplayer/medals/small/pancake.png",
        "medium": "https://assets.halo.autocode.gg/static/infinite/images/multiplayer/medals/medium/pancake.png"
    }
},
{
    "id": 3114137341,
    "name": "Bulltrue",
    "description": "Save yourself or an ally by interrupting an enemy's Energy Sword lunge",
    "type": "General",
    "rarity": "Heroic",
    "image_urls": {
        "small": "https://assets.halo.autocode.gg/static/infinite/images/multiplayer/medals/small/bulltrue.png",
        "medium": "https://assets.halo.autocode.gg/static/infinite/images/multiplayer/medals/medium/bulltrue.png"
    }
},
{
    "id": 2414983178,
    "name": "Bank Shot",
    "description": "Kill an enemy with a ricochet",
    "type": "Weapon",
    "rarity": "Heroic",
    "image_urls": {
        "small": "https://assets.halo.autocode.gg/static/infinite/images/multiplayer/medals/small/bank-shot.png",
        "medium": "https://assets.halo.autocode.gg/static/infinite/images/multiplayer/medals/medium/bank-shot.png"
    }
},
{
    "id": 265478668,
    "name": "Nade Shot",
    "description": "Headshot an enemy moments after damaging them with a grenade",
    "type": "Nades",
    "rarity": "Heroic",
    "image_urls": {
        "small": "https://assets.halo.autocode.gg/static/infinite/images/multiplayer/medals/small/nade-shot.png",
        "medium": "https://assets.halo.autocode.gg/static/infinite/images/multiplayer/medals/medium/nade-shot.png"
    }
},
{
    "id": 1512363953,
    "name": "Perfect",
    "description": "Kill an enemy with a precision weapon with peak efficiency",
    "type": "General",
    "rarity": "Heroic",
    "image_urls": {
        "small": "https://assets.halo.autocode.gg/static/infinite/images/multiplayer/medals/small/perfect.png",
        "medium": "https://assets.halo.autocode.gg/static/infinite/images/multiplayer/medals/medium/perfect.png"
    }
},
{
    "id": 1880789493,
    "name": "Mind the Gap",
    "description": "Kill an enemy by sending them to their doom with the Repulsor",
    "type": "Equipment",
    "rarity": "Heroic",
    "image_urls": {
        "small": "https://assets.halo.autocode.gg/static/infinite/images/multiplayer/medals/small/mind-the-gap.png",
        "medium": "https://assets.halo.autocode.gg/static/infinite/images/multiplayer/medals/medium/mind-the-gap.png"
    }
},
{
    "id": 3934547153,
    "name": "Hail Mary",
    "description": "Kill an enemy with a grenade from far away",
    "type": "Nades",
    "rarity": "Heroic",
    "image_urls": {
        "small": "https://assets.halo.autocode.gg/static/infinite/images/multiplayer/medals/small/hail-mary.png",
        "medium": "https://assets.halo.autocode.gg/static/infinite/images/multiplayer/medals/medium/hail-mary.png"
    }
},
{
    "id": 988255960,
    "name": "Fire & Forget",
    "description": "Kill an enemy with an M41 SPNKr from far away",
    "type": "Weapon",
    "rarity": "Heroic",
    "image_urls": {
        "small": "https://assets.halo.autocode.gg/static/infinite/images/multiplayer/medals/small/fire-forget.png",
        "medium": "https://assets.halo.autocode.gg/static/infinite/images/multiplayer/medals/medium/fire-forget.png"
    }
},
{
    "id": 4215552487,
    "name": "Ballista",
    "description": "Kill an enemy with a Skewer from far away",
    "type": "Weapon",
    "rarity": "Heroic",
    "image_urls": {
        "small": "https://assets.halo.autocode.gg/static/infinite/images/multiplayer/medals/small/ballista.png",
        "medium": "https://assets.halo.autocode.gg/static/infinite/images/multiplayer/medals/medium/ballista.png"
    }
},
{
    "id": 677323068,
    "name": "Death Race",
    "description": "Splatter 2+ enemies with a single boost in a Ghost",
    "type": "Vehicle",
    "rarity": "Heroic",
    "image_urls": {
        "small": "https://assets.halo.autocode.gg/static/infinite/images/multiplayer/medals/small/death-race.png",
        "medium": "https://assets.halo.autocode.gg/static/infinite/images/multiplayer/medals/medium/death-race.png"
    }
},
{
    "id": 2602963073,
    "name": "No Scope",
    "description": "Kill an enemy with a Power sniper rifle without zooming",
    "type": "Weapon",
    "rarity": "Heroic",
    "image_urls": {
        "small": "https://assets.halo.autocode.gg/static/infinite/images/multiplayer/medals/small/no-scope.png",
        "medium": "https://assets.halo.autocode.gg/static/infinite/images/multiplayer/medals/medium/no-scope.png"
    }
},
{
    "id": 1734214473,
    "name": "Whiplash",
    "description": "Kill a grappling enemy",
    "type": "Equipment",
    "rarity": "Heroic",
    "image_urls": {
        "small": "https://assets.halo.autocode.gg/static/infinite/images/multiplayer/medals/small/whiplash.png",
        "medium": "https://assets.halo.autocode.gg/static/infinite/images/multiplayer/medals/medium/whiplash.png"
    }
},
{
    "id": 2827657131,
    "name": "Windshield Wiper",
    "description": "Kill an enemy attempting to hijack a vehicle",
    "type": "Vehicle",
    "rarity": "Heroic",
    "image_urls": {
        "small": "https://assets.halo.autocode.gg/static/infinite/images/multiplayer/medals/small/windshield-wiper.png",
        "medium": "https://assets.halo.autocode.gg/static/infinite/images/multiplayer/medals/medium/windshield-wiper.png"
    }
},
{
    "id": 524758914,
    "name": "Boom Block",
    "description": "Block an incoming projectile by deploying a Drop Wall",
    "type": "Equipment",
    "rarity": "Legendary",
    "image_urls": {
        "small": "https://assets.halo.autocode.gg/static/infinite/images/multiplayer/medals/small/boom-block.png",
        "medium": "https://assets.halo.autocode.gg/static/infinite/images/multiplayer/medals/medium/boom-block.png"
    }
},
{
    "id": 1646928910,
    "name": "Grand Slam",
    "description": "Kill 2+ enemies with a single Gravity Hammer swing",
    "type": "Weapon",
    "rarity": "Legendary",
    "image_urls": {
        "small": "https://assets.halo.autocode.gg/static/infinite/images/multiplayer/medals/small/grand-slam.png",
        "medium": "https://assets.halo.autocode.gg/static/infinite/images/multiplayer/medals/medium/grand-slam.png"
    }
},
{
    "id": 3059799290,
    "name": "Return to Sender",
    "description": "Kill an enemy by deflecting their projectile",
    "type": "Equipment",
    "rarity": "Legendary",
    "image_urls": {
        "small": "https://assets.halo.autocode.gg/static/infinite/images/multiplayer/medals/small/return-to-sender.png",
        "medium": "https://assets.halo.autocode.gg/static/infinite/images/multiplayer/medals/medium/return-to-sender.png"
    }
},
{
    "id": 651256911,
    "name": "Interlinked",
    "description": "Shock 4 enemies with a single chain",
    "type": "Nades",
    "rarity": "Legendary",
    "image_urls": {
        "small": "https://assets.halo.autocode.gg/static/infinite/images/multiplayer/medals/small/interlinked.png",
        "medium": "https://assets.halo.autocode.gg/static/infinite/images/multiplayer/medals/medium/interlinked.png"
    }
},
{
    "id": 1623236079,
    "name": "Autopilot Engaged",
    "description": "Kill the enemy driver of a moving vehicle with a Power sniper rifle",
    "type": "Weapon",
    "rarity": "Legendary",
    "image_urls": {
        "small": "https://assets.halo.autocode.gg/static/infinite/images/multiplayer/medals/small/autopilot-engaged.png",
        "medium": "https://assets.halo.autocode.gg/static/infinite/images/multiplayer/medals/medium/autopilot-engaged.png"
    }
},
{
    "id": 3217141618,
    "name": "Achilles Spine",
    "description": "Kill an Overshielded enemy by hitting them from behind with melee",
    "type": "Melee",
    "rarity": "Legendary",
    "image_urls": {
        "small": "https://assets.halo.autocode.gg/static/infinite/images/multiplayer/medals/small/achilles-spine.png",
        "medium": "https://assets.halo.autocode.gg/static/infinite/images/multiplayer/medals/medium/achilles-spine.png"
    }
},
{
    "id": 670606868,
    "name": "Sneak King",
    "description": "Kill a camouflaged enemy by hitting them from behind with melee",
    "type": "Weapon",
    "rarity": "Legendary",
    "image_urls": {
        "small": "https://assets.halo.autocode.gg/static/infinite/images/multiplayer/medals/small/sneak-king.png",
        "medium": "https://assets.halo.autocode.gg/static/infinite/images/multiplayer/medals/medium/sneak-king.png"
    }
},
{
    "id": 4132863117,
    "name": "Pull",
    "description": "Kill an enemy with a sniper rifle after they've been launched by a Man Cannon",
    "type": "Weapon",
    "rarity": "Heroic",
    "image_urls": {
        "small": "https://assets.halo.autocode.gg/static/infinite/images/multiplayer/medals/small/pull.png",
        "medium": "https://assets.halo.autocode.gg/static/infinite/images/multiplayer/medals/medium/pull.png"
    }
},
{
    "id": 2253222811,
    "name": "Nuclear Football",
    "description": "Catch an enemy-thrown Fusion Coil",
    "type": "General",
    "rarity": "Legendary",
    "image_urls": {
        "small": "https://assets.halo.autocode.gg/static/infinite/images/multiplayer/medals/small/nuclear-football.png",
        "medium": "https://assets.halo.autocode.gg/static/infinite/images/multiplayer/medals/medium/nuclear-football.png"
    }
},
{
    "id": 3160646854,
    "name": "Remote Detonation",
    "description": "Kill an enemy by shooting a grenade",
    "type": "Nades",
    "rarity": "Mythic",
    "image_urls": {
        "small": "https://assets.halo.autocode.gg/static/infinite/images/multiplayer/medals/small/remote-detonation.png",
        "medium": "https://assets.halo.autocode.gg/static/infinite/images/multiplayer/medals/medium/remote-detonation.png"
    }
},
{
    "id": 1312042926,
    "name": "Quigley",
    "description": "Kill 2+ enemies with a single S7 Sniper round",
    "type": "Weapon",
    "rarity": "Mythic",
    "image_urls": {
        "small": "https://assets.halo.autocode.gg/static/infinite/images/multiplayer/medals/small/quigley.png",
        "medium": "https://assets.halo.autocode.gg/static/infinite/images/multiplayer/medals/medium/quigley.png"
    }
},
{
    "id": 3085856613,
    "name": "Ninja",
    "description": "Kill an enemy by leaping over them and hitting them from behind with melee",
    "type": "Melee",
    "rarity": "Mythic",
    "image_urls": {
        "small": "https://assets.halo.autocode.gg/static/infinite/images/multiplayer/medals/small/ninja.png",
        "medium": "https://assets.halo.autocode.gg/static/infinite/images/multiplayer/medals/medium/ninja.png"
    }
},
{
    "id": 3739610597,
    "name": "Flyin' High",
    "description": "Achieve a massive jump in a fully-loaded vehicle",
    "type": "Vehicle",
    "rarity": "Normal",
    "image_urls": {
        "small": "https://assets.halo.autocode.gg/static/infinite/images/multiplayer/medals/small/flyin-high.png",
        "medium": "https://assets.halo.autocode.gg/static/infinite/images/multiplayer/medals/medium/flyin-high.png"
    }
},
{
    "id": 1065136443,
    "name": "Mount Up",
    "description": "Assemble a fully-loaded vehicle of 2+ allies after honking the horn",
    "type": "Vehicle",
    "rarity": "Normal",
    "image_urls": {
        "small": "https://assets.halo.autocode.gg/static/infinite/images/multiplayer/medals/small/mount-up.png",
        "medium": "https://assets.halo.autocode.gg/static/infinite/images/multiplayer/medals/medium/mount-up.png"
    }
},
{
    "id": 1445036152,
    "name": "Reclaimer",
    "description": "Hijack an enemy vehicle that was once yours",
    "type": "Vehicle",
    "rarity": "Normal",
    "image_urls": {
        "small": "https://assets.halo.autocode.gg/static/infinite/images/multiplayer/medals/small/reclaimer.png",
        "medium": "https://assets.halo.autocode.gg/static/infinite/images/multiplayer/medals/medium/reclaimer.png"
    }
},
{
    "id": 2625820422,
    "name": "From the Grave",
    "description": "Kill an enemy after you die",
    "type": "General",
    "rarity": "Normal",
    "image_urls": {
        "small": "https://assets.halo.autocode.gg/static/infinite/images/multiplayer/medals/small/from-the-grave.png",
        "medium": "https://assets.halo.autocode.gg/static/infinite/images/multiplayer/medals/medium/from-the-grave.png"
    }
},
{
    "id": 275666139,
    "name": "Special Delivery",
    "description": "Kill an enemy with a Man Cannon- or Grav Lift-boosted grenade",
    "type": "Nades",
    "rarity": "Normal",
    "image_urls": {
        "small": "https://assets.halo.autocode.gg/static/infinite/images/multiplayer/medals/small/special-delivery.png",
        "medium": "https://assets.halo.autocode.gg/static/infinite/images/multiplayer/medals/medium/special-delivery.png"
    }
},
{
    "id": 2861418269,
    "name": "Quick Draw",
    "description": "Kill an enemy with a pistol moments after switching to it",
    "type": "Weapon",
    "rarity": "Normal",
    "image_urls": {
        "small": "https://assets.halo.autocode.gg/static/infinite/images/multiplayer/medals/small/quick-draw.png",
        "medium": "https://assets.halo.autocode.gg/static/infinite/images/multiplayer/medals/medium/quick-draw.png"
    }
},
{
    "id": 3091261182,
    "name": "Last Shot",
    "description": "Kill an enemy with your magazine's last round",
    "type": "General",
    "rarity": "Normal",
    "image_urls": {
        "small": "https://assets.halo.autocode.gg/static/infinite/images/multiplayer/medals/small/last-shot.png",
        "medium": "https://assets.halo.autocode.gg/static/infinite/images/multiplayer/medals/medium/last-shot.png"
    }
},
{
    "id": 1331361851,
    "name": "Mounted & Loaded",
    "description": "Earn a Double Kill with a stationary turret",
    "type": "Multi",
    "rarity": "Heroic",
    "image_urls": {
        "small": "https://assets.halo.autocode.gg/static/infinite/images/multiplayer/medals/small/mounted-loaded.png",
        "medium": "https://assets.halo.autocode.gg/static/infinite/images/multiplayer/medals/medium/mounted-loaded.png"
    }
},
{
    "id": 3583966655,
    "name": "Party's Over",
    "description": "Destroy a fully-loaded enemy Razorback",
    "type": "Vehicle",
    "rarity": "Heroic",
    "image_urls": {
        "small": "https://assets.halo.autocode.gg/static/infinite/images/multiplayer/medals/small/partys-over.png",
        "medium": "https://assets.halo.autocode.gg/static/infinite/images/multiplayer/medals/medium/partys-over.png"
    }
},
{
    "id": 1298835518,
    "name": "Ramming Speed",
    "description": "Destroy an enemy vehicle by hitting it with your own",
    "type": "Vehicle",
    "rarity": "Heroic",
    "image_urls": {
        "small": "https://assets.halo.autocode.gg/static/infinite/images/multiplayer/medals/small/ramming-speed.png",
        "medium": "https://assets.halo.autocode.gg/static/infinite/images/multiplayer/medals/medium/ramming-speed.png"
    }
},
{
    "id": 3588869844,
    "name": "From the Void",
    "description": "Kill an enemy through a teleporter",
    "type": "General",
    "rarity": "Heroic",
    "image_urls": {
        "small": "https://assets.halo.autocode.gg/static/infinite/images/multiplayer/medals/small/from-the-void.png",
        "medium": "https://assets.halo.autocode.gg/static/infinite/images/multiplayer/medals/medium/from-the-void.png"
    }
},
{
    "id": 3475540930,
    "name": "Lawnmower",
    "description": "Destroy an enemy vehicle with the wheels of a Brute Chopper",
    "type": "Vehicle",
    "rarity": "Heroic",
    "image_urls": {
        "small": "https://assets.halo.autocode.gg/static/infinite/images/multiplayer/medals/small/lawnmower.png",
        "medium": "https://assets.halo.autocode.gg/static/infinite/images/multiplayer/medals/medium/lawnmower.png"
    }
},
{
    "id": 690125105,
    "name": "Grapple-jack",
    "description": "Grapple to and hijack an enemy vehicle",
    "type": "Equipment",
    "rarity": "Heroic",
    "image_urls": {
        "small": "https://assets.halo.autocode.gg/static/infinite/images/multiplayer/medals/small/grapple-jack.png",
        "medium": "https://assets.halo.autocode.gg/static/infinite/images/multiplayer/medals/medium/grapple-jack.png"
    }
},
{
    "id": 175594566,
    "name": "Hold This",
    "description": "Kill an enemy moments after dropping a weapon using your remaining gun",
    "type": "General",
    "rarity": "Heroic",
    "image_urls": {
        "small": "https://assets.halo.autocode.gg/static/infinite/images/multiplayer/medals/small/hold-this.png",
        "medium": "https://assets.halo.autocode.gg/static/infinite/images/multiplayer/medals/medium/hold-this.png"
    }
},
{
    "id": 1169571763,
    "name": "Shot Caller",
    "description": "Headshot an enemy moments after Marking them",
    "type": "General",
    "rarity": "Heroic",
    "image_urls": {
        "small": "https://assets.halo.autocode.gg/static/infinite/images/multiplayer/medals/small/shot-caller.png",
        "medium": "https://assets.halo.autocode.gg/static/infinite/images/multiplayer/medals/medium/shot-caller.png"
    }
},
{
    "id": 1283796619,
    "name": "Off the Rack",
    "description": "Kill an enemy with a weapon moments after retrieving it from its spawn location",
    "type": "General",
    "rarity": "Heroic",
    "image_urls": {
        "small": "https://assets.halo.autocode.gg/static/infinite/images/multiplayer/medals/small/off-the-rack.png",
        "medium": "https://assets.halo.autocode.gg/static/infinite/images/multiplayer/medals/medium/off-the-rack.png"
    }
},
{
    "id": 1176569867,
    "name": "Yard Sale",
    "description": "Kill an enemy who had a Power weapon and a full inventory",
    "type": "General",
    "rarity": "Heroic",
    "image_urls": {
        "small": "https://assets.halo.autocode.gg/static/infinite/images/multiplayer/medals/small/yard-sale.png",
        "medium": "https://assets.halo.autocode.gg/static/infinite/images/multiplayer/medals/medium/yard-sale.png"
    }
},
{
    "id": 2019283350,
    "name": "Pineapple Express",
    "description": "Kill an enemy with a grenade as a passenger",
    "type": "Vehicle",
    "rarity": "Heroic",
    "image_urls": {
        "small": "https://assets.halo.autocode.gg/static/infinite/images/multiplayer/medals/small/pineapple-express.png",
        "medium": "https://assets.halo.autocode.gg/static/infinite/images/multiplayer/medals/medium/pineapple-express.png"
    }
},
{
    "id": 2396845048,
    "name": "Deadly Catch",
    "description": "Grapple a weapon or object to you and immediately kill an enemy with it",
    "type": "Equipment",
    "rarity": "Legendary",
    "image_urls": {
        "small": "https://assets.halo.autocode.gg/static/infinite/images/multiplayer/medals/small/deadly-catch.png",
        "medium": "https://assets.halo.autocode.gg/static/infinite/images/multiplayer/medals/medium/deadly-catch.png"
    }
},
{
    "id": 1427176344,
    "name": "360",
    "description": "Kill an enemy by shooting them moments after spinning around",
    "type": "General",
    "rarity": "Legendary",
    "image_urls": {
        "small": "https://assets.halo.autocode.gg/static/infinite/images/multiplayer/medals/small/360.png",
        "medium": "https://assets.halo.autocode.gg/static/infinite/images/multiplayer/medals/medium/360.png"
    }
},
{
    "id": 2967011722,
    "name": "Street Sweeper",
    "description": "Kill an enemy with the CQS48 Bulldog as a passenger",
    "type": "Vehicle",
    "rarity": "Legendary",
    "image_urls": {
        "small": "https://assets.halo.autocode.gg/static/infinite/images/multiplayer/medals/small/street-sweeper.png",
        "medium": "https://assets.halo.autocode.gg/static/infinite/images/multiplayer/medals/medium/street-sweeper.png"
    }
},
{
    "id": 197913196,
    "name": "Driveby",
    "description": "Earn a Double Kill as a passenger",
    "type": "Vehicle",
    "rarity": "Legendary",
    "image_urls": {
        "small": "https://assets.halo.autocode.gg/static/infinite/images/multiplayer/medals/small/driveby.png",
        "medium": "https://assets.halo.autocode.gg/static/infinite/images/multiplayer/medals/medium/driveby.png"
    }
},
{
    "id": 641726424,
    "name": "Combat Evolved",
    "description": "Catch a power weapon that was blasted off of a Weapon Pad with a Plasma Grenade",
    "type": "General",
    "rarity": "Legendary",
    "image_urls": {
        "small": "https://assets.halo.autocode.gg/static/infinite/images/multiplayer/medals/small/combat-evolved.png",
        "medium": "https://assets.halo.autocode.gg/static/infinite/images/multiplayer/medals/medium/combat-evolved.png"
    }
},
{
    "id": 1211820913,
    "name": "Fastball",
    "description": "Kill an enemy with the impact from a thrown grenade",
    "type": "Nades",
    "rarity": "Mythic",
    "image_urls": {
        "small": "https://assets.halo.autocode.gg/static/infinite/images/multiplayer/medals/small/fastball.png",
        "medium": "https://assets.halo.autocode.gg/static/infinite/images/multiplayer/medals/medium/fastball.png"
    }
}]